<?xml version="1.0" encoding="UTF-8"?>
<svg width="134px" height="88px" viewBox="0 0 134 88" version="1.1" xmlns="http://www.w3.org/2000/svg" xmlns:xlink="http://www.w3.org/1999/xlink">
    <!-- Generator: Sketch 44.1 (41455) - http://www.bohemiancoding.com/sketch -->
    <title>terminal7icon</title>
    <desc>Created with Sketch.</desc>
    <defs></defs>
    <g id="Symbols" stroke="none" stroke-width="1" fill="none" fill-rule="evenodd">
        <g id="terminal7" fill="#000000">
            <g id="Group">
                <path d="M133.523,78.097 C133.035,77.608 132.41,77.364 131.65,77.364 L53.435,77.364 C52.675,77.364 52.05,77.608 51.561,78.097 C51.073,78.586 50.829,79.21 50.829,79.971 L50.829,85.186 C50.829,85.946 51.073,86.571 51.561,87.059 C52.05,87.547 52.675,87.792 53.435,87.792 L131.65,87.792 C132.41,87.792 133.035,87.547 133.523,87.059 C134.011,86.571 134.255,85.946 134.255,85.186 L134.255,79.971 C134.256,79.21 134.012,78.586 133.523,78.097 L133.523,78.097 Z" id="Shape"></path>
                <path d="M8.38,1.022 C7.837,0.479 7.212,0.207 6.506,0.207 C5.8,0.207 5.176,0.479 4.633,1.022 L0.559,5.096 C0.016,5.639 -0.255,6.263 -0.255,6.97 C-0.255,7.677 0.016,8.301 0.559,8.844 L32.579,40.863 L0.559,72.883 C0.016,73.426 -0.255,74.051 -0.255,74.756 C-0.255,75.463 0.016,76.087 0.559,76.63 L4.633,80.703 C5.176,81.247 5.8,81.517 6.506,81.517 C7.212,81.517 7.837,81.246 8.38,80.703 L46.347,42.737 C46.89,42.194 47.161,41.568 47.161,40.862 C47.161,40.156 46.89,39.531 46.347,38.988 L8.38,1.022 L8.38,1.022 Z" id="Shape"></path>
            </g>
        </g>
    </g>
</svg>